102|101,201|502,602|2
202|201,301|702,802|3
302|301,401|802,902|1
402|101,501|502,1102|4
502|101,601|102,402,1102,602|3
602|201,601|102,502,1202,702|4
702|201,701|602,1202,802,202|6
802|301,701|202,702,902,302|2
902|401,701|302,802,1302,1402|3
1002|401,801|1402,1502|2
1102|501,601|502,402,1802,1902|2
1202|601,701|702,602,2002,2102|5
1302|701,1101|902,2102,2202,1402|4
1402|401,1101|902,1302,1502,1002|5
1502|801,1101|1002,1402,2402,1602|3
1602|801,1201|1502,2402|1
1702|501,1301|1802,2502|4
1802|501,901|1102,1702,2502,1902|3
1902|601,901|1102,1802,2002,2602|1
2002|601,1001|1902,2602,2102,1202|6
2102|701,1001|1202,2002,2202,1302|1
2202|1001,1101|1302,2102,2802,2302|2
2302|1101,1501|2202,2802,2902,2402|1
2402|1101,1201|2302,2902,1602,1502|6
2502|901,1301|1802,1702,3802,3102|2
2602|901,1001|2002,1902,3202,2702|5
2702|1001,1401|2602,3202,3302,2802|4
2802|1001,1501|2702,3302,2302,2202|3
2902|1201,1501|2402,2302,3402,3002|2
3002|1201,1601|2902,3402|5
3102|901,1701|2502,3802,3502,3202|4
3202|901,1401|2602,3102,3502,2702|6
3302|1401,1501|2702,3602,3702,2802|5
3402|1501,1601|3702,4002,3002,2902|4
3502|1401,1701|3102,4102,3902,3202|3
3602|1401,1901|3902,4202,4002,3702|2
3702|1501,1901|3302,3602,4002,3402|6
3802|1301,1701|2502,3102|1
3902|1401,1801|3502,4102,4202,3602|1
4002|1601,1901|3402,3702|1
4102|1701,1801|3502,3902|2
4202|1801,1901|3602,3902|5